{
"skeleton": { "hash": "no0QHOtQOr4eWninmiX8XjpKCLk", "spine": "2.1.27", "width": 192, "height": 192, "images": "" },
"bones": [
	{ "name": "root" },
	{ "name": "centre", "parent": "root" },
	{ "name": "bot", "parent": "centre", "y": -32 },
	{ "name": "left", "parent": "centre", "x": -32 },
	{ "name": "right", "parent": "centre", "x": 32 },
	{ "name": "top", "parent": "centre", "y": 32 },
	{ "name": "bone", "parent": "bot", "x": 32 },
	{ "name": "bone2", "parent": "left", "y": -32 },
	{ "name": "bone3", "parent": "right", "y": 32 },
	{ "name": "bone4", "parent": "top", "x": -32 }
],
"slots": [
	{ "name": "square", "bone": "top", "attachment": "s1" },
	{ "name": "square2", "bone": "bot", "attachment": "s2" },
	{ "name": "square3", "bone": "right", "attachment": "s3" },
	{ "name": "square4", "bone": "left", "attachment": "s4" },
	{ "name": "square5", "bone": "centre", "attachment": "s5" },
	{ "name": "square6", "bone": "bone3", "attachment": "s6" },
	{ "name": "square7", "bone": "bone4", "attachment": "s7" },
	{ "name": "square8", "bone": "bone2", "attachment": "s2" },
	{ "name": "square9", "bone": "bone", "attachment": "s" }
],
"skins": {
	"default": {},
	"idle": {
		"square": {
			"s1": { "name": "square2", "y": 32, "width": 64, "height": 64 }
		},
		"square2": {
			"s2": { "name": "square2", "y": -32, "width": 64, "height": 64 }
		},
		"square3": {
			"s3": { "name": "square2", "x": 32, "width": 64, "height": 64 }
		},
		"square4": {
			"s4": { "name": "square2", "x": -32, "width": 64, "height": 64 }
		},
		"square5": {
			"s5": { "name": "square2", "width": 64, "height": 64 }
		},
		"square6": {
			"s6": { "name": "square2", "x": 32, "y": 32, "width": 64, "height": 64 }
		},
		"square7": {
			"s7": { "name": "square2", "x": -32, "y": 32, "width": 64, "height": 64 }
		},
		"square8": {
			"s2": { "name": "square2", "x": -32, "y": -32, "width": 64, "height": 64 }
		},
		"square9": {
			"s": { "name": "square2", "x": 32, "y": -32, "width": 64, "height": 64 }
		}
	},
	"idle-n": {
		"square": {
			"s1": { "name": "n-square2", "y": 32, "width": 64, "height": 64 }
		},
		"square2": {
			"s2": { "name": "n-square2", "y": -32, "width": 64, "height": 64 }
		},
		"square3": {
			"s3": { "name": "n-square2", "x": 32, "width": 64, "height": 64 }
		},
		"square4": {
			"s4": { "name": "n-square2", "x": -32, "width": 64, "height": 64 }
		},
		"square5": {
			"s5": { "name": "n-square2", "width": 64, "height": 64 }
		},
		"square6": {
			"s6": { "name": "n-square2", "x": 32, "y": 32, "width": 64, "height": 64 }
		},
		"square7": {
			"s7": { "name": "n-square2", "x": -32, "y": 32, "width": 64, "height": 64 }
		},
		"square8": {
			"s2": { "name": "n-square2", "x": -32, "y": -32, "width": 64, "height": 64 }
		},
		"square9": {
			"s": { "name": "n-square2", "x": 32, "y": -32, "width": 64, "height": 64 }
		}
	}
},
"animations": {
	"idle": {
		"bones": {
			"centre": {
				"rotate": [
					{ "time": 0, "angle": 0 },
					{ "time": 0.5, "angle": 270 },
					{ "time": 1, "angle": -180 },
					{ "time": 1.5, "angle": 90 },
					{ "time": 2, "angle": 0 }
				]
			},
			"top": {
				"rotate": [
					{ "time": 0, "angle": 0 },
					{ "time": 0.5, "angle": 45 },
					{ "time": 1, "angle": 90 },
					{ "time": 1.5, "angle": 135 },
					{ "time": 2, "angle": 180 }
				],
				"translate": [
					{ "time": 0, "x": 0, "y": 0 },
					{ "time": 0.5, "x": 0, "y": 32 },
					{ "time": 1, "x": 0, "y": 0 },
					{ "time": 1.5, "x": 0, "y": 32 },
					{ "time": 2, "x": 0, "y": 0 }
				]
			},
			"right": {
				"rotate": [
					{ "time": 0, "angle": 0 },
					{ "time": 0.5, "angle": 45 },
					{ "time": 1, "angle": 90 },
					{ "time": 1.5, "angle": 135 },
					{ "time": 2, "angle": 180 }
				],
				"translate": [
					{ "time": 0, "x": 0, "y": 0 },
					{ "time": 0.5, "x": 32, "y": 0 },
					{ "time": 1, "x": 0, "y": 0 },
					{ "time": 1.5, "x": 32, "y": 0 },
					{ "time": 2, "x": 0, "y": 0 }
				]
			},
			"left": {
				"rotate": [
					{ "time": 0, "angle": 0 },
					{ "time": 0.5, "angle": 45 },
					{ "time": 1, "angle": 90 },
					{ "time": 1.5, "angle": 135 },
					{ "time": 2, "angle": 180 }
				],
				"translate": [
					{ "time": 0, "x": 0, "y": 0 },
					{ "time": 0.5, "x": -32, "y": 0 },
					{ "time": 1, "x": 0, "y": 0 },
					{ "time": 1.5, "x": -32, "y": 0 },
					{ "time": 2, "x": 0, "y": 0 }
				]
			},
			"bot": {
				"rotate": [
					{ "time": 0, "angle": 0 },
					{ "time": 0.5, "angle": 45 },
					{ "time": 1, "angle": 90 },
					{ "time": 1.5, "angle": 135 },
					{ "time": 2, "angle": 180 }
				],
				"translate": [
					{ "time": 0, "x": 0, "y": 0 },
					{ "time": 0.5, "x": 0, "y": -32 },
					{ "time": 1, "x": 0, "y": 0 },
					{ "time": 1.5, "x": 0, "y": -32 },
					{ "time": 2, "x": 0, "y": 0 }
				]
			}
		}
	},
	"idle2": {
		"bones": {
			"centre": {
				"rotate": [
					{ "time": 0, "angle": 0 },
					{ "time": 0.5, "angle": 90 },
					{ "time": 1, "angle": 180 },
					{ "time": 1.5, "angle": 270 }
				]
			},
			"bot": {
				"rotate": [
					{ "time": 0, "angle": 0, "curve": "stepped" },
					{ "time": 0.5, "angle": 0 },
					{ "time": 1, "angle": 89.99 }
				],
				"translate": [
					{ "time": 0, "x": 0, "y": 0 },
					{ "time": 0.5, "x": 32, "y": 0, "curve": "stepped" },
					{ "time": 1, "x": 32, "y": 0 },
					{ "time": 1.5, "x": 32, "y": 32 }
				]
			},
			"left": {
				"rotate": [
					{ "time": 0, "angle": 0, "curve": "stepped" },
					{ "time": 0.5, "angle": 0 },
					{ "time": 1, "angle": 89.99 }
				],
				"translate": [
					{ "time": 0, "x": 0, "y": 0 },
					{ "time": 0.5, "x": 0, "y": -32, "curve": "stepped" },
					{ "time": 1, "x": 0, "y": -32 },
					{ "time": 1.5, "x": 32, "y": -32 }
				]
			},
			"top": {
				"rotate": [
					{ "time": 0, "angle": 0, "curve": "stepped" },
					{ "time": 0.5, "angle": 0 },
					{ "time": 1, "angle": 89.99 }
				],
				"translate": [
					{ "time": 0, "x": 0, "y": 0 },
					{ "time": 0.5, "x": -32, "y": 0, "curve": "stepped" },
					{ "time": 1, "x": -32, "y": 0 },
					{ "time": 1.5, "x": -32, "y": -32 }
				]
			},
			"right": {
				"rotate": [
					{ "time": 0, "angle": 0, "curve": "stepped" },
					{ "time": 0.5, "angle": 0 },
					{ "time": 1, "angle": 89.99 }
				],
				"translate": [
					{ "time": 0, "x": 0, "y": 0 },
					{ "time": 0.5, "x": 0, "y": 32, "curve": "stepped" },
					{ "time": 1, "x": 0, "y": 32 },
					{ "time": 1.5, "x": -32, "y": 32 }
				]
			},
			"bone2": {
				"rotate": [
					{ "time": 0, "angle": 0, "curve": "stepped" },
					{ "time": 1, "angle": 0 }
				],
				"translate": [
					{ "time": 0, "x": 0, "y": 0 },
					{ "time": 0.5, "x": -32, "y": 0, "curve": "stepped" },
					{ "time": 1, "x": -32, "y": 0 },
					{ "time": 1.5, "x": -1.29, "y": 0 }
				],
				"scale": [
					{ "time": 0, "x": 1, "y": 1 },
					{ "time": 0.5, "x": 1.5, "y": 1 },
					{ "time": 1, "x": 1, "y": 1, "curve": "stepped" },
					{ "time": 1.5, "x": 1, "y": 1 }
				]
			},
			"bone4": {
				"rotate": [
					{ "time": 0, "angle": 0, "curve": "stepped" },
					{ "time": 1, "angle": 0 }
				],
				"translate": [
					{ "time": 0, "x": 0, "y": 0 },
					{ "time": 0.5, "x": 0, "y": 32, "curve": "stepped" },
					{ "time": 1, "x": 0, "y": 32 },
					{ "time": 1.5, "x": 0, "y": 0.43 }
				],
				"scale": [
					{ "time": 0, "x": 1, "y": 1 },
					{ "time": 0.5, "x": 1.5, "y": 1 },
					{ "time": 1, "x": 1, "y": 1, "curve": "stepped" },
					{ "time": 1.5, "x": 1, "y": 1 }
				]
			},
			"bone3": {
				"rotate": [
					{ "time": 0, "angle": 0, "curve": "stepped" },
					{ "time": 1, "angle": 0 }
				],
				"translate": [
					{ "time": 0, "x": 0, "y": 0 },
					{ "time": 0.5, "x": 32, "y": 0, "curve": "stepped" },
					{ "time": 1, "x": 32, "y": 0 },
					{ "time": 1.5, "x": 0, "y": 0 }
				],
				"scale": [
					{ "time": 0, "x": 1, "y": 1 },
					{ "time": 0.5, "x": 1.5, "y": 1 },
					{ "time": 1, "x": 1, "y": 1, "curve": "stepped" },
					{ "time": 1.5, "x": 1, "y": 1 }
				]
			},
			"bone": {
				"rotate": [
					{ "time": 0, "angle": 0, "curve": "stepped" },
					{ "time": 1, "angle": 0 }
				],
				"translate": [
					{ "time": 0, "x": 0, "y": 0 },
					{ "time": 0.5, "x": 0, "y": -32, "curve": "stepped" },
					{ "time": 1, "x": 0, "y": -32 },
					{ "time": 1.5, "x": 0, "y": -0.43 }
				],
				"scale": [
					{ "time": 0, "x": 1, "y": 1 },
					{ "time": 0.5, "x": 1.5, "y": 1 },
					{ "time": 1, "x": 1, "y": 1, "curve": "stepped" },
					{ "time": 1.5, "x": 1, "y": 1 }
				]
			}
		}
	}
}
}
